Estadística Final
…
[880] "hh_d_accesi"        "hh_d_entorno"       "hh_d_hapoyo"       
[883] "hh_d_part"          "hh_d_tsocial"       "hh_d_seg"          
[886] "hh_d_appart"        "pobreza_multi_5d"   "pobreza_multi_4d"  
[889] "disc_wg"            "depen_grado"        "esc"               
[892] "desercion"          "rezago"             "asiste"            
[895] "educ"               "depen"              "activ"             
[898] "asal"               "contrato"           "cotiza"            
[901] "lugar_nac"          "pueblos_indigenas"  "n_ocupados"        
[904] "n_desocupados"      "n_inactivos"        "conyuge_jh"        
[907] "numper"             "numnuc"             "men18c"            
[910] "may60c"             "tipohogar"          "tot_hog"           
[913] "ind_hacina"         "indsan"             "ten_viv"           
[916] "ten_viv_f"          "allega_ext"         "allega_int"        

# A tibble: 202,231 × 3
   participacion_sindicato  edad sexo         
   <dbl+lbl>               <dbl> <dbl+lbl>    
 1 NA                         72 2 [2. Mujer] 
 2  2 [2. No]                 67 1 [1. Hombre]
 3  2 [2. No]                 40 2 [2. Mujer] 
 4 NA                         56 1 [1. Hombre]
 5 NA                         25 2 [2. Mujer] 
 6 NA                          2 1 [1. Hombre]
 7 NA                         60 2 [2. Mujer] 
 8 NA                         84 1 [1. Hombre]
 9 NA                         67 2 [2. Mujer] 
10 NA                         30 1 [1. Hombre]
# ℹ 202,221 more rows
…
